EESchema Schematic File Version 4
EELAYER 30 0
EELAYER END
$Descr A4 11693 8268
encoding utf-8
Sheet 1 1
Title ""
Date ""
Rev ""
Comp ""
Comment1 ""
Comment2 ""
Comment3 ""
Comment4 ""
$EndDescr
$Comp
L power:GND #PWR0101
U 1 1 61B2A3F2
P 5000 4100
F 0 "#PWR0101" H 5000 3850 50  0001 C CNN
F 1 "GND" H 5005 3927 50  0000 C CNN
F 2 "" H 5000 4100 50  0001 C CNN
F 3 "" H 5000 4100 50  0001 C CNN
	1    5000 4100
	1    0    0    -1  
$EndComp
$Comp
L power:GND #PWR0102
U 1 1 61B31B2F
P 1850 6100
F 0 "#PWR0102" H 1850 5850 50  0001 C CNN
F 1 "GND" H 1855 5927 50  0000 C CNN
F 2 "" H 1850 6100 50  0001 C CNN
F 3 "" H 1850 6100 50  0001 C CNN
	1    1850 6100
	1    0    0    -1  
$EndComp
$Comp
L Device:C C1
U 1 1 61B2CA75
P 4400 3000
F 0 "C1" H 4515 3046 50  0000 L CNN
F 1 "4.7u" H 4515 2955 50  0000 L CNN
F 2 "Capacitor_SMD:C_0805_2012Metric" H 4438 2850 50  0001 C CNN
F 3 "~" H 4400 3000 50  0001 C CNN
	1    4400 3000
	1    0    0    -1  
$EndComp
$Comp
L power:GND #PWR0103
U 1 1 61B46AC7
P 4400 3150
F 0 "#PWR0103" H 4400 2900 50  0001 C CNN
F 1 "GND" H 4405 2977 50  0000 C CNN
F 2 "" H 4400 3150 50  0001 C CNN
F 3 "" H 4400 3150 50  0001 C CNN
	1    4400 3150
	1    0    0    -1  
$EndComp
Wire Wire Line
	4400 2750 4400 2850
$Comp
L Battery_Management:BQ24012 U1
U 1 1 61B4221F
P 5100 3500
F 0 "U1" H 4556 3546 50  0000 R CNN
F 1 "BQ24012" H 4556 3455 50  0000 R CNN
F 2 "Package_SON:VSON-10-1EP_3x3mm_P0.5mm_EP1.65x2.4mm_ThermalVias" H 5100 2800 50  0001 C CNN
F 3 "http://www.ti.com/lit/ds/symlink/bq24012.pdf" H 5100 3500 50  0001 C CNN
	1    5100 3500
	1    0    0    -1  
$EndComp
Wire Wire Line
	4400 2750 4900 2750
Wire Wire Line
	5000 2900 5000 2750
Wire Wire Line
	4900 2900 4900 2750
Connection ~ 4900 2750
Wire Wire Line
	4900 2750 5000 2750
$Comp
L power:GND #PWR0104
U 1 1 61B4859A
P 4600 3700
F 0 "#PWR0104" H 4600 3450 50  0001 C CNN
F 1 "GND" H 4605 3527 50  0000 C CNN
F 2 "" H 4600 3700 50  0001 C CNN
F 3 "" H 4600 3700 50  0001 C CNN
	1    4600 3700
	1    0    0    -1  
$EndComp
Wire Wire Line
	4600 3700 4600 3500
$Comp
L Connector:USB_C_Receptacle J1
U 1 1 61B4AB5C
P 2750 3750
F 0 "J1" H 2857 5017 50  0000 C CNN
F 1 "USB_C_Receptacle" H 2857 4926 50  0000 C CNN
F 2 "Connector_USB:USB_C_Receptacle_GCT_USB4085" H 2900 3750 50  0001 C CNN
F 3 "https://www.usb.org/sites/default/files/documents/usb_type-c.zip" H 2900 3750 50  0001 C CNN
	1    2750 3750
	1    0    0    -1  
$EndComp
Wire Wire Line
	3350 2750 4400 2750
Connection ~ 4400 2750
$Comp
L power:GND #PWR0105
U 1 1 61B4DDAB
P 2750 5350
F 0 "#PWR0105" H 2750 5100 50  0001 C CNN
F 1 "GND" H 2755 5177 50  0000 C CNN
F 2 "" H 2750 5350 50  0001 C CNN
F 3 "" H 2750 5350 50  0001 C CNN
	1    2750 5350
	1    0    0    -1  
$EndComp
$EndSCHEMATC
