(kicad_pcb (version 20171130) (host pcbnew "(5.1.8)-1")

  (general
    (thickness 1.6)
    (drawings 0)
    (tracks 0)
    (zones 0)
    (modules 3)
    (nets 19)
  )

  (page A4)
  (layers
    (0 F.Cu signal)
    (31 B.Cu signal)
    (32 B.Adhes user)
    (33 F.Adhes user)
    (34 B.Paste user)
    (35 F.Paste user)
    (36 B.SilkS user)
    (37 F.SilkS user)
    (38 B.Mask user)
    (39 F.Mask user)
    (40 Dwgs.User user)
    (41 Cmts.User user)
    (42 Eco1.User user)
    (43 Eco2.User user)
    (44 Edge.Cuts user)
    (45 Margin user)
    (46 B.CrtYd user)
    (47 F.CrtYd user)
    (48 B.Fab user)
    (49 F.Fab user)
  )

  (setup
    (last_trace_width 0.25)
    (trace_clearance 0.2)
    (zone_clearance 0.508)
    (zone_45_only no)
    (trace_min 0.2)
    (via_size 0.8)
    (via_drill 0.4)
    (via_min_size 0.4)
    (via_min_drill 0.3)
    (uvia_size 0.3)
    (uvia_drill 0.1)
    (uvias_allowed no)
    (uvia_min_size 0.2)
    (uvia_min_drill 0.1)
    (edge_width 0.05)
    (segment_width 0.2)
    (pcb_text_width 0.3)
    (pcb_text_size 1.5 1.5)
    (mod_edge_width 0.12)
    (mod_text_size 1 1)
    (mod_text_width 0.15)
    (pad_size 1.524 1.524)
    (pad_drill 0.762)
    (pad_to_mask_clearance 0)
    (aux_axis_origin 0 0)
    (visible_elements 7FFFFFFF)
    (pcbplotparams
      (layerselection 0x010fc_ffffffff)
      (usegerberextensions false)
      (usegerberattributes true)
      (usegerberadvancedattributes true)
      (creategerberjobfile true)
      (excludeedgelayer true)
      (linewidth 0.100000)
      (plotframeref false)
      (viasonmask false)
      (mode 1)
      (useauxorigin false)
      (hpglpennumber 1)
      (hpglpenspeed 20)
      (hpglpendiameter 15.000000)
      (psnegative false)
      (psa4output false)
      (plotreference true)
      (plotvalue true)
      (plotinvisibletext false)
      (padsonsilk false)
      (subtractmaskfromsilk false)
      (outputformat 1)
      (mirror false)
      (drillshape 1)
      (scaleselection 1)
      (outputdirectory ""))
  )

  (net 0 "")
  (net 1 "Net-(C1-Pad1)")
  (net 2 GND)
  (net 3 "Net-(J1-PadS1)")
  (net 4 "Net-(J1-PadB6)")
  (net 5 "Net-(J1-PadB5)")
  (net 6 "Net-(J1-PadB8)")
  (net 7 "Net-(J1-PadB7)")
  (net 8 "Net-(J1-PadA8)")
  (net 9 "Net-(J1-PadA7)")
  (net 10 "Net-(J1-PadA6)")
  (net 11 "Net-(J1-PadA5)")
  (net 12 "Net-(U1-Pad11)")
  (net 13 "Net-(U1-Pad10)")
  (net 14 "Net-(U1-Pad9)")
  (net 15 "Net-(U1-Pad7)")
  (net 16 "Net-(U1-Pad6)")
  (net 17 "Net-(U1-Pad4)")
  (net 18 "Net-(U1-Pad3)")

  (net_class Default "This is the default net class."
    (clearance 0.2)
    (trace_width 0.25)
    (via_dia 0.8)
    (via_drill 0.4)
    (uvia_dia 0.3)
    (uvia_drill 0.1)
    (add_net GND)
    (add_net "Net-(C1-Pad1)")
    (add_net "Net-(J1-PadA5)")
    (add_net "Net-(J1-PadA6)")
    (add_net "Net-(J1-PadA7)")
    (add_net "Net-(J1-PadA8)")
    (add_net "Net-(J1-PadB5)")
    (add_net "Net-(J1-PadB6)")
    (add_net "Net-(J1-PadB7)")
    (add_net "Net-(J1-PadB8)")
    (add_net "Net-(J1-PadS1)")
    (add_net "Net-(U1-Pad10)")
    (add_net "Net-(U1-Pad11)")
    (add_net "Net-(U1-Pad3)")
    (add_net "Net-(U1-Pad4)")
    (add_net "Net-(U1-Pad6)")
    (add_net "Net-(U1-Pad7)")
    (add_net "Net-(U1-Pad9)")
  )

  (module Package_SON:VSON-10-1EP_3x3mm_P0.5mm_EP1.65x2.4mm_ThermalVias (layer F.Cu) (tedit 5A65F0B8) (tstamp 61B3CE75)
    (at 450.03 -48.63)
    (descr "VSON 10 Thermal on 11 3x3mm Pitch 0.5mm http://chip.tomsk.ru/chip/chipdoc.nsf/Package/D8A64DD165C2AAD9472579400024FC41!OpenDocument")
    (tags "VSON 10 Thermal on 11 3x3mm Pitch 0.5mm")
    (path /61B4221F)
    (attr smd)
    (fp_text reference U1 (at 0 -2.9) (layer F.SilkS)
      (effects (font (size 1 1) (thickness 0.15)))
    )
    (fp_text value BQ24012 (at 0 3) (layer F.Fab)
      (effects (font (size 1 1) (thickness 0.15)))
    )
    (fp_text user %R (at 0 0) (layer F.Fab)
      (effects (font (size 0.8 0.8) (thickness 0.1)))
    )
    (fp_line (start -1.5 -0.5) (end -0.5 -1.5) (layer F.Fab) (width 0.1))
    (fp_line (start -1.6 -1.5) (end -2 -1.5) (layer F.SilkS) (width 0.12))
    (fp_line (start -2.15 2.15) (end -2.15 -2.15) (layer F.CrtYd) (width 0.05))
    (fp_line (start 2.15 2.15) (end -2.15 2.15) (layer F.CrtYd) (width 0.05))
    (fp_line (start 2.15 -2.15) (end 2.15 2.15) (layer F.CrtYd) (width 0.05))
    (fp_line (start -2.15 -2.15) (end 2.15 -2.15) (layer F.CrtYd) (width 0.05))
    (fp_line (start 1.6 1.6) (end 1.6 1.5) (layer F.SilkS) (width 0.12))
    (fp_line (start 0.8 1.6) (end 1.6 1.6) (layer F.SilkS) (width 0.12))
    (fp_line (start -1.6 1.6) (end -0.8 1.6) (layer F.SilkS) (width 0.12))
    (fp_line (start -1.6 1.5) (end -1.6 1.6) (layer F.SilkS) (width 0.12))
    (fp_line (start 1.6 -1.6) (end 1.6 -1.5) (layer F.SilkS) (width 0.12))
    (fp_line (start 0.8 -1.6) (end 1.6 -1.6) (layer F.SilkS) (width 0.12))
    (fp_line (start -1.6 -1.6) (end -1.6 -1.5) (layer F.SilkS) (width 0.12))
    (fp_line (start -0.8 -1.6) (end -1.6 -1.6) (layer F.SilkS) (width 0.12))
    (fp_line (start -1.5 1.5) (end 1.5 1.5) (layer F.Fab) (width 0.1))
    (fp_line (start -1.5 -0.5) (end -1.5 1.5) (layer F.Fab) (width 0.1))
    (fp_line (start 1.5 -1.5) (end 1.5 1.5) (layer F.Fab) (width 0.1))
    (fp_line (start -0.5 -1.5) (end 1.5 -1.5) (layer F.Fab) (width 0.1))
    (pad 11 smd rect (at 0 0) (size 1.65 2.4) (layers B.Cu)
      (net 12 "Net-(U1-Pad11)"))
    (pad 11 thru_hole circle (at 0 0) (size 0.6 0.6) (drill 0.3) (layers *.Cu)
      (net 12 "Net-(U1-Pad11)"))
    (pad 11 thru_hole circle (at 0.48 0.86) (size 0.6 0.6) (drill 0.3) (layers *.Cu)
      (net 12 "Net-(U1-Pad11)"))
    (pad 11 thru_hole circle (at 0.48 -0.86) (size 0.6 0.6) (drill 0.3) (layers *.Cu)
      (net 12 "Net-(U1-Pad11)"))
    (pad 11 thru_hole circle (at -0.48 0.86) (size 0.6 0.6) (drill 0.3) (layers *.Cu)
      (net 12 "Net-(U1-Pad11)"))
    (pad 11 thru_hole circle (at -0.48 -0.86) (size 0.6 0.6) (drill 0.3) (layers *.Cu)
      (net 12 "Net-(U1-Pad11)"))
    (pad "" smd rect (at 0.48 -0.86) (size 0.64 0.64) (layers F.Paste))
    (pad "" smd rect (at -0.48 -0.86) (size 0.64 0.64) (layers F.Paste))
    (pad "" smd rect (at 0.48 0) (size 0.64 0.64) (layers F.Paste))
    (pad "" smd rect (at -0.48 0) (size 0.64 0.64) (layers F.Paste))
    (pad "" smd rect (at -0.48 0.86) (size 0.64 0.64) (layers F.Paste))
    (pad 11 smd rect (at 0.25 1.55) (size 0.28 0.7) (layers F.Cu F.Paste F.Mask)
      (net 12 "Net-(U1-Pad11)"))
    (pad 11 smd rect (at 0.25 -1.55) (size 0.28 0.7) (layers F.Cu F.Paste F.Mask)
      (net 12 "Net-(U1-Pad11)"))
    (pad 11 smd rect (at -0.25 1.55) (size 0.28 0.7) (layers F.Cu F.Paste F.Mask)
      (net 12 "Net-(U1-Pad11)"))
    (pad 11 smd rect (at -0.25 -1.55) (size 0.28 0.7) (layers F.Cu F.Paste F.Mask)
      (net 12 "Net-(U1-Pad11)"))
    (pad "" smd rect (at 0.48 0.86) (size 0.64 0.64) (layers F.Paste))
    (pad 11 smd rect (at 0 0) (size 1.65 2.4) (layers F.Cu F.Mask)
      (net 12 "Net-(U1-Pad11)"))
    (pad 10 smd rect (at 1.475 -1) (size 0.85 0.28) (layers F.Cu F.Paste F.Mask)
      (net 13 "Net-(U1-Pad10)"))
    (pad 9 smd rect (at 1.475 -0.5) (size 0.85 0.28) (layers F.Cu F.Paste F.Mask)
      (net 14 "Net-(U1-Pad9)"))
    (pad 8 smd rect (at 1.475 0) (size 0.85 0.28) (layers F.Cu F.Paste F.Mask)
      (net 2 GND))
    (pad 7 smd rect (at 1.475 0.5) (size 0.85 0.28) (layers F.Cu F.Paste F.Mask)
      (net 15 "Net-(U1-Pad7)"))
    (pad 6 smd rect (at 1.475 1) (size 0.85 0.28) (layers F.Cu F.Paste F.Mask)
      (net 16 "Net-(U1-Pad6)"))
    (pad 5 smd rect (at -1.475 1) (size 0.85 0.28) (layers F.Cu F.Paste F.Mask)
      (net 2 GND))
    (pad 4 smd rect (at -1.475 0.5) (size 0.85 0.28) (layers F.Cu F.Paste F.Mask)
      (net 17 "Net-(U1-Pad4)"))
    (pad 3 smd rect (at -1.475 0) (size 0.85 0.28) (layers F.Cu F.Paste F.Mask)
      (net 18 "Net-(U1-Pad3)"))
    (pad 2 smd rect (at -1.475 -0.5) (size 0.85 0.28) (layers F.Cu F.Paste F.Mask)
      (net 1 "Net-(C1-Pad1)"))
    (pad 1 smd rect (at -1.475 -1) (size 0.85 0.28) (layers F.Cu F.Paste F.Mask)
      (net 1 "Net-(C1-Pad1)"))
    (model ${KISYS3DMOD}/Package_SON.3dshapes/VSON-10-1EP_3x3mm_P0.5mm_EP1.65x2.4mm.wrl
      (at (xyz 0 0 0))
      (scale (xyz 1 1 1))
      (rotate (xyz 0 0 0))
    )
  )

  (module Connector_USB:USB_C_Receptacle_GCT_USB4085 (layer F.Cu) (tedit 5BCCCD93) (tstamp 61B3CE43)
    (at 438.58 -49.72)
    (descr "USB 2.0 Type C Receptacle, https://gct.co/Files/Drawings/USB4085.pdf")
    (tags "USB Type-C Receptacle Through-hole Right angle")
    (path /61B4AB5C)
    (fp_text reference J1 (at 2.975 -1.8) (layer F.SilkS)
      (effects (font (size 1 1) (thickness 0.15)))
    )
    (fp_text value USB_C_Receptacle (at 2.975 9.925) (layer F.Fab)
      (effects (font (size 1 1) (thickness 0.15)))
    )
    (fp_text user %R (at 2.975 4.025) (layer F.Fab)
      (effects (font (size 1 1) (thickness 0.15)))
    )
    (fp_text user "PCB Edge" (at 2.975 6.1) (layer Dwgs.User)
      (effects (font (size 0.5 0.5) (thickness 0.1)))
    )
    (fp_line (start -1.5 -0.56) (end 7.45 -0.56) (layer F.Fab) (width 0.1))
    (fp_line (start -1.5 8.61) (end 7.45 8.61) (layer F.Fab) (width 0.1))
    (fp_line (start -1.62 8.73) (end 7.57 8.73) (layer F.SilkS) (width 0.12))
    (fp_line (start -1.5 -0.68) (end 7.45 -0.68) (layer F.SilkS) (width 0.12))
    (fp_line (start -1.5 -0.56) (end -1.5 8.61) (layer F.Fab) (width 0.1))
    (fp_line (start 7.45 -0.56) (end 7.45 8.61) (layer F.Fab) (width 0.1))
    (fp_line (start 7.57 6) (end 7.57 8.73) (layer F.SilkS) (width 0.12))
    (fp_line (start -1.62 6) (end -1.62 8.73) (layer F.SilkS) (width 0.12))
    (fp_line (start 7.57 2.4) (end 7.57 3.3) (layer F.SilkS) (width 0.12))
    (fp_line (start -1.62 2.4) (end -1.62 3.3) (layer F.SilkS) (width 0.12))
    (fp_line (start -2.3 -1.06) (end -2.3 9.11) (layer F.CrtYd) (width 0.05))
    (fp_line (start -2.3 9.11) (end 8.25 9.11) (layer F.CrtYd) (width 0.05))
    (fp_line (start -2.3 -1.06) (end 8.25 -1.06) (layer F.CrtYd) (width 0.05))
    (fp_line (start 8.25 -1.06) (end 8.25 9.11) (layer F.CrtYd) (width 0.05))
    (fp_line (start -0.025 6.1) (end 5.975 6.1) (layer F.Fab) (width 0.1))
    (pad S1 thru_hole oval (at 7.3 4.36) (size 0.9 1.7) (drill oval 0.6 1.4) (layers *.Cu *.Mask)
      (net 3 "Net-(J1-PadS1)"))
    (pad S1 thru_hole oval (at -1.35 4.36) (size 0.9 1.7) (drill oval 0.6 1.4) (layers *.Cu *.Mask)
      (net 3 "Net-(J1-PadS1)"))
    (pad S1 thru_hole oval (at 7.3 0.98) (size 0.9 2.4) (drill oval 0.6 2.1) (layers *.Cu *.Mask)
      (net 3 "Net-(J1-PadS1)"))
    (pad S1 thru_hole oval (at -1.35 0.98) (size 0.9 2.4) (drill oval 0.6 2.1) (layers *.Cu *.Mask)
      (net 3 "Net-(J1-PadS1)"))
    (pad B6 thru_hole circle (at 3.4 1.35) (size 0.7 0.7) (drill 0.4) (layers *.Cu *.Mask)
      (net 4 "Net-(J1-PadB6)"))
    (pad B1 thru_hole circle (at 5.95 1.35) (size 0.7 0.7) (drill 0.4) (layers *.Cu *.Mask)
      (net 2 GND))
    (pad B4 thru_hole circle (at 5.1 1.35) (size 0.7 0.7) (drill 0.4) (layers *.Cu *.Mask)
      (net 1 "Net-(C1-Pad1)"))
    (pad B5 thru_hole circle (at 4.25 1.35) (size 0.7 0.7) (drill 0.4) (layers *.Cu *.Mask)
      (net 5 "Net-(J1-PadB5)"))
    (pad B12 thru_hole circle (at 0 1.35) (size 0.7 0.7) (drill 0.4) (layers *.Cu *.Mask)
      (net 2 GND))
    (pad B8 thru_hole circle (at 1.7 1.35) (size 0.7 0.7) (drill 0.4) (layers *.Cu *.Mask)
      (net 6 "Net-(J1-PadB8)"))
    (pad B7 thru_hole circle (at 2.55 1.35) (size 0.7 0.7) (drill 0.4) (layers *.Cu *.Mask)
      (net 7 "Net-(J1-PadB7)"))
    (pad B9 thru_hole circle (at 0.85 1.35) (size 0.7 0.7) (drill 0.4) (layers *.Cu *.Mask)
      (net 1 "Net-(C1-Pad1)"))
    (pad A12 thru_hole circle (at 5.95 0) (size 0.7 0.7) (drill 0.4) (layers *.Cu *.Mask)
      (net 2 GND))
    (pad A9 thru_hole circle (at 5.1 0) (size 0.7 0.7) (drill 0.4) (layers *.Cu *.Mask)
      (net 1 "Net-(C1-Pad1)"))
    (pad A8 thru_hole circle (at 4.25 0) (size 0.7 0.7) (drill 0.4) (layers *.Cu *.Mask)
      (net 8 "Net-(J1-PadA8)"))
    (pad A7 thru_hole circle (at 3.4 0) (size 0.7 0.7) (drill 0.4) (layers *.Cu *.Mask)
      (net 9 "Net-(J1-PadA7)"))
    (pad A6 thru_hole circle (at 2.55 0) (size 0.7 0.7) (drill 0.4) (layers *.Cu *.Mask)
      (net 10 "Net-(J1-PadA6)"))
    (pad A5 thru_hole circle (at 1.7 0) (size 0.7 0.7) (drill 0.4) (layers *.Cu *.Mask)
      (net 11 "Net-(J1-PadA5)"))
    (pad A4 thru_hole circle (at 0.85 0) (size 0.7 0.7) (drill 0.4) (layers *.Cu *.Mask)
      (net 1 "Net-(C1-Pad1)"))
    (pad A1 thru_hole circle (at 0 0) (size 0.7 0.7) (drill 0.4) (layers *.Cu *.Mask)
      (net 2 GND))
    (model ${KISYS3DMOD}/Connector_USB.3dshapes/USB_C_Receptacle_GCT_USB4085.wrl
      (at (xyz 0 0 0))
      (scale (xyz 1 1 1))
      (rotate (xyz 0 0 0))
    )
  )

  (module Capacitor_SMD:C_0805_2012Metric (layer F.Cu) (tedit 5F68FEEE) (tstamp 61B3CE1A)
    (at 449.58 -44.45)
    (descr "Capacitor SMD 0805 (2012 Metric), square (rectangular) end terminal, IPC_7351 nominal, (Body size source: IPC-SM-782 page 76, https://www.pcb-3d.com/wordpress/wp-content/uploads/ipc-sm-782a_amendment_1_and_2.pdf, https://docs.google.com/spreadsheets/d/1BsfQQcO9C6DZCsRaXUlFlo91Tg2WpOkGARC1WS5S8t0/edit?usp=sharing), generated with kicad-footprint-generator")
    (tags capacitor)
    (path /61B2CA75)
    (attr smd)
    (fp_text reference C1 (at 0 -1.68) (layer F.SilkS)
      (effects (font (size 1 1) (thickness 0.15)))
    )
    (fp_text value 4.7u (at 0 1.68) (layer F.Fab)
      (effects (font (size 1 1) (thickness 0.15)))
    )
    (fp_text user %R (at 0 0) (layer F.Fab)
      (effects (font (size 0.5 0.5) (thickness 0.08)))
    )
    (fp_line (start -1 0.625) (end -1 -0.625) (layer F.Fab) (width 0.1))
    (fp_line (start -1 -0.625) (end 1 -0.625) (layer F.Fab) (width 0.1))
    (fp_line (start 1 -0.625) (end 1 0.625) (layer F.Fab) (width 0.1))
    (fp_line (start 1 0.625) (end -1 0.625) (layer F.Fab) (width 0.1))
    (fp_line (start -0.261252 -0.735) (end 0.261252 -0.735) (layer F.SilkS) (width 0.12))
    (fp_line (start -0.261252 0.735) (end 0.261252 0.735) (layer F.SilkS) (width 0.12))
    (fp_line (start -1.7 0.98) (end -1.7 -0.98) (layer F.CrtYd) (width 0.05))
    (fp_line (start -1.7 -0.98) (end 1.7 -0.98) (layer F.CrtYd) (width 0.05))
    (fp_line (start 1.7 -0.98) (end 1.7 0.98) (layer F.CrtYd) (width 0.05))
    (fp_line (start 1.7 0.98) (end -1.7 0.98) (layer F.CrtYd) (width 0.05))
    (pad 2 smd roundrect (at 0.95 0) (size 1 1.45) (layers F.Cu F.Paste F.Mask) (roundrect_rratio 0.25)
      (net 2 GND))
    (pad 1 smd roundrect (at -0.95 0) (size 1 1.45) (layers F.Cu F.Paste F.Mask) (roundrect_rratio 0.25)
      (net 1 "Net-(C1-Pad1)"))
    (model ${KISYS3DMOD}/Capacitor_SMD.3dshapes/C_0805_2012Metric.wrl
      (at (xyz 0 0 0))
      (scale (xyz 1 1 1))
      (rotate (xyz 0 0 0))
    )
  )

)
